…
How many times songs on the top 100 show up on the daily 200 shows how
popular the songs are compared to each other. The most popular song
worldwide on Spotify in 2017 that was released that year is 'Shape of
You' by Ed Sheeron.

    timesondaily <- topsongs%>%
      group_by(name)%>%
      count()%>%
      arrange(desc(n))
    timesondaily

    ## # A tibble: 100 x 2
    ## # Groups:   name [100]
    ##    name                                                                  n
    ##    <chr>                                                             <int>
    ##  1 Shape of You                                                      19365
    ##  2 Believer                                                          16775
    ##  3 Despacito (Featuring Daddy Yankee)                                16284
    ##  4 Something Just Like This                                          16194
    ##  5 Rockabye (feat. Sean Paul & Anne-Marie)                           16177
    ##  6 "I Don’t Wanna Live Forever (Fifty Shades Darker) - From \"Fifty… 15447
    ##  7 Closer                                                            15136
    ##  8 Scared to Be Lonely                                               14836
    ##  9 It Ain't Me (with Selena Gomez)                                   14801
    ## 10 Let Me Love You                                                   14562
    ## # ... with 90 more rows

How many times songs from the top 100 showed up on each countries daily
200. We can see that at the top, New Zealand had 'Closer' on their daily
200 a total of 446 times, however 'Let Me Love You' shows up for
multiple countries in the top 10.

    regionaltimes <- topsongs%>%
      group_by(name, region)%>%
      count()%>%
      arrange(desc(n))
    regionaltimes

    ## # A tibble: 4,924 x 3
    ## # Groups:   name, region [4,924]
    ##    name            region            n
    ##    <chr>           <fct>         <int>
    ##  1 Closer          new_zealand     446
    ##  2 Unforgettable   united_states   431
    ##  3 Believer        netherlands     410
    ##  4 Let Me Love You australia       406
    ##  5 Let Me Love You netherlands     394
    ##  6 Unforgettable   canada          390
    ##  7 Let Me Love You canada          384
    ##  8 Closer          japan           374
    ##  9 Chantaje        uruguay         372
    ## 10 Let Me Love You costa_rica      372
    ## # ... with 4,914 more rows
…
    regional1 <- regionaltimes%>%
      inner_join(top2017, by = c("name"))

    regional2 <- topsongs%>%
      group_by(region)%>%
      summarise(meandance = mean(danceability), meanenergy = mean(energy), meanloud = mean(loudness), meanspeech = mean(speechiness), meanacoustic = mean(acousticness), meaninstrumental = mean(instrumentalness), meanliveness = mean(liveness), meanvalence = mean(valence), meantemp = mean(tempo))
    regional2

    ## # A tibble: 54 x 10
    ##    region      meandance meanenergy meanloud meanspeech meanacoustic
    ##    <fct>           <dbl>      <dbl>    <dbl>      <dbl>        <dbl>
    ##  1 argentina       0.691      0.696    -5.18     0.0836        0.166
    ##  2 austria         0.691      0.671    -5.50     0.0966        0.157
    ##  3 australia       0.695      0.651    -5.77     0.108         0.167
    ##  4 belgium         0.692      0.663    -5.58     0.0990        0.164
    ##  5 bolivia         0.698      0.694    -5.19     0.0791        0.168
    ##  6 brazil          0.689      0.679    -5.39     0.0916        0.161
    ##  7 canada          0.701      0.650    -5.77     0.111         0.168
    ##  8 switzerland     0.696      0.671    -5.51     0.0981        0.164
    ##  9 chile           0.693      0.696    -5.22     0.0860        0.161
    ## 10 colombia        0.696      0.685    -5.38     0.0891        0.164
    ## # ... with 44 more rows, and 4 more variables: meaninstrumental <dbl>,
    ## #   meanliveness <dbl>, meanvalence <dbl>, meantemp <dbl>
…
